1
256
256
256
8
2
256
256
256
256
256
256
256
256
256
256
256
2
256
256
256
256
16
8
1
8
8
8
8
256
256
256
256
256
256
256
256
256
256
256
1
1
64
256
32
256
1
256
256
64
256
256
256
256
256
256
256
256
256
256
1
256
256
256
256
16
1
8
256
256
256
1
256
256
256
256
256
256
256
256
256
256
256
256
256
256
256
256
256
256
256
256
256
16
256
1
1
256
256
1
256
1
256
256
256
256
16
256
256
256
256
1
256
256
256
256
256
256
256
256
256
256
256
256
256
1
256
1
256
256
256
1
1
256
1
1
256
256
1
256
256
256
256
256
256
256
256
256
256
256
256
256
256
256
256
256
256
32
256
256
256
1
1
256
256
256
256
256
256
256
256
256
256
256
256
256
256
256
256
256
256
256
256
256
256
256
256
256
256
256
256
256
256
256
256
256
256
256
256
256
256
256
256
256
256
1
1
256
256
8
256
256
256
256
256
256
256
256
256
256
256
256
256
1
256
256
256
256
256
256
256
256
256
256
256
256
256
256
256
256
256
256
1
256
256
8
256
2
1
256
256
16
1
1
256
1
1
1
1
1
1
16
1
1
256
8
1
1
1
256
8
1
1
8
2
2
1
64
32
1
1
1
1
1
1
256
256
8
1
1
1
256
32
1
1
256
256
1
4
2
256
16
256
8
64
1
2
1
1
256
1
32
4
1
1
32
16
1
256
1
256
256
1
256
256
16
256
256
1
256
256
256
8
16
256
256
256
256
256
8
256
1
256
16
1
1
1
1
1
1
1
256
256
1
1
1
16
16
1
1
8
1
1
256
1
64
8
1
1
1
256
1
8
1
1
8
1
1
256
1
1
1
1
1
1
1
1
1
1
1
8
256
256
1
1
8
256
8
256
256
8
32
256
256
256
1
256
256
1
8
1
256
8
256
256
256
256
256
16
256
256
256
256
1
1
256
8
256
256
256
256
1
256
1
256
1
256
1
256
1
256
256
256
256
1
256
1
1
256
256
256
256
1
1
1
256
256
1
8
1
1
1
256
1
256
16
1
256
1
1
256
1
256
1
1
256
1
256
64
1
1
1
2
256
256
1
256
1
1
256
1
256
1
1
16
256
1
256
256
16
1
1
256
1
1
1
1
1
1
16
1
1
256
16
1
1
1
256
8
1
1
16
2
2
8
1
16
1
1
1
1
1
1
8
8
8
1
1
1
16
8
16
8
256
256
64
1
2
256
1
256
8
1
1
2
1
1
256
1
8
2
1
8
32
1
1
8
1
256
256
1
256
256
1
256
1
1
256
256
16
8
1
8
256
256
2
256
1
256
1
256
16
1
1
1
16
1
1
1
256
256
1
1
1
1
8
1
1
8
1
1
32
1
1
1
16
1
1
1
1
1
16
1
1
1
1
256
1
1
1
1
1
1
1
1
1
1
1
8
8
256
1
1
1
32
1
8
16
256
32
256
256
256
1
256
256
1
32
1
16
1
256
256
8
1
1
2
256
256
16
256
1
1
8
1
256
256
256
256
1
256
1
256
1
2
1
256
1
256
256
256
256
1
256
1
1
8
256
4
256
1
1
1
256
64
1
8
1
1
1
4
1
1
1
1
256
1
1
256
1
64
1
1
1
1
256
1
1
1
1
2
1
256
1
32
1
1
1
1
1
1
1
64
16
8
256
16
8
1
1
256
1
1
1
1
1
1
16
1
1
16
8
1
1
1
8
16
1
16
16
2
2
1
1
1
1
1
1
1
1
1
16
16
8
16
1
1
8
32
16
8
8
8
1
1
2
256
1
16
1
1
16
2
1
16
256
1
1
2
1
1
32
1
1
1
1
16
256
1
256
256
1
16
1
1
16
256
16
2
1
1
256
256
2
256
1
1
1
1
1
8
1
1
8
1
16
1
256
256
1
1
1
1
8
1
64
8
1
1
1
1
1
1
1
1
1
1
1
1
4
1
1
1
1
256
1
1
1
1
1
1
1
1
1
1
1
8
16
256
1
1
1
1
1
1
8
8
32
256
256
16
1
256
256
1
8
1
1
1
8
1
64
1
1
1
256
8
1
256
1
1
1
1
256
256
256
256
1
8
1
16
1
1
1
256
1
8
256
16
32
1
16
1
1
16
16
1
256
1
1
1
1
1
1
8
1
1
1
4
1
1
1
1
256
1
1
256
8
64
1
1
1
1
8
1
1
1
1
2
1
1
1
32
32
32
1
1
8
1
1
1
32
8
8
64
16
1
1
8
1
1
1
1
1
1
16
1
1
16
8
1
1
1
8
16
1
16
16
2
2
1
1
1
1
1
1
1
1
1
8
1
8
16
1
1
8
8
16
8
8
16
1
1
2
256
1
8
1
1
1
2
1
16
256
1
1
2
1
1
32
1
1
1
1
16
256
1
8
256
1
8
1
16
1
256
16
32
1
1
256
2
16
256
1
1
1
1
16
8
1
1
8
1
1
1
256
256
1
1
1
1
8
1
64
8
1
1
1
1
1
1
1
1
1
1
1
1
16
1
8
1
1
16
1
16
1
1
64
1
16
1
1
1
1
8
8
16
1
1
1
16
1
1
8
8
32
8
256
8
1
256
256
1
8
1
1
1
64
1
1
1
1
1
256
1
1
256
1
1
1
1
8
256
256
256
1
32
1
16
1
2
1
256
1
8
256
8
32
1
16
1
1
1
16
1
256
1
1
1
1
1
1
8
1
1
1
16
1
1
16
1
8
1
1
256
8
64
1
1
1
1
1
1
1
1
1
16
1
1
1
32
32
1
1
1
1
1
1
1
1
8
8
1
16
1
1
1
1
1
1
1
1
1
16
1
1
8
1
1
1
1
8
16
1
16
1
8
2
1
1
1
1
1
1
1
1
1
64
1
1
1
1
1
1
32
1
16
8
16
1
1
2
256
1
1
1
1
1
2
1
16
8
1
1
2
1
1
32
1
1
1
1
8
8
1
8
8
8
16
1
1
1
16
16
1
1
1
16
1
1
2
1
1
1
1
16
16
1
1
16
1
1
1
256
256
1
1
1
1
8
1
8
16
1
1
1
16
1
1
1
1
1
1
1
1
16
1
16
1
1
1
1
1
1
1
1
1
1
1
1
1
1
8
8
16
1
1
1
1
1
1
1
1
32
8
256
8
1
256
256
1
8
1
1
1
1
1
1
1
1
1
1
1
1
8
1
1
1
1
8
256
256
256
1
1
1
1
1
2
1
256
1
1
256
8
16
1
1
1
1
32
8
1
16
1
1
16
1
1
1
8
1
1
1
8
1
1
1
1
1
1
1
2
8
64
1
1
1
1
1
1
1
1
1
2
1
1
1
32
1
1
1
32
1
1
1
1
1
