Filename	Sequences	Total	Mean	Median	n50	n90
/home/biolum/ncbi-blast-2.2.25+/db/SNL_h10_transcripts.fa	15342	20032818	1305	735	2351	7868
/home/biolum/ncbi-blast-2.2.25+/db/SNL_h1_transcripts.fa	1952	2221286	1137	630	1939	5946
/home/biolum/ncbi-blast-2.2.25+/db/SNL_h20_transcripts.fa	29631	41923794	1414	774	2612	8524
/home/biolum/ncbi-blast-2.2.25+/db/SNL_h30_transcripts.fa	43991	63258876	1437	804	2654	7532
/home/biolum/ncbi-blast-2.2.25+/db/SNL_h40_transcripts.fa	57219	83029960	1451	801	2748	7541
/home/biolum/ncbi-blast-2.2.25+/db/SNL_h50_transcripts.fa	70225	104288839	1485	852	2750	7458
/home/biolum/ncbi-blast-2.2.25+/db/SNL_h60_transcripts.fa	82913	122356929	1475	822	2780	7503
/home/biolum/ncbi-blast-2.2.25+/db/SNL_h70_transcripts.fa	95371	139899977	1466	816	2779	7395
/home/biolum/ncbi-blast-2.2.25+/db/SNL_h80_transcripts.fa	107082	159592017	1490	837	2803	7585
