Filename	Sequences	Total	Mean	Median	n50	n90
/home/biolum/ncbi-blast-2.2.25+/db/tomo_all_transcripts.fa	68650	55944087	814	562	1214	3435
/home/biolum/ncbi-blast-2.2.25+/db/tomo_h01_transcripts.fa	4382	2370044	540	378	728	2209
/home/biolum/ncbi-blast-2.2.25+/db/tomo_h10_transcripts.fa	29445	20702358	703	490	993	2858
/home/biolum/ncbi-blast-2.2.25+/db/tomo_h20_transcripts.fa	46977	35346295	752	526	1079	3031
/home/biolum/ncbi-blast-2.2.25+/db/tomo_h30_transcripts.fa	60764	48360656	795	549	1179	3289
